…
## On Your Own: RStudio Practice 

- You should see the table that we have above, now We have a variable named `year`, assume that we wish to actually have each year as its own variable. 
- Using the `spread()` function, redo this data so that each year is a variable. 
- Your data will look like this at the end:


--- .class #id

## On Your Own: RStudio Practice


```
## # A tibble: 219 x 20
##                country   `1995`   `1996`   `1997`   `1998`   `1999`
##  *               <chr>    <int>    <int>    <int>    <int>    <int>
##  1         Afghanistan 17586073 18415307 19021226 19496836 19987071
##  2             Albania  3357858  3341043  3331317  3325456  3317941
##  3             Algeria 29315463 29845208 30345466 30820435 31276295
##  4      American Samoa    52874    53926    54942    55899    56768
##  5             Andorra    63854    64274    64090    63799    64084
##  6              Angola 12104952 12451945 12791388 13137542 13510616
##  7            Anguilla     9807    10063    10305    10545    10797
##  8 Antigua and Barbuda    68349    70245    72232    74206    76041
##  9           Argentina 34833168 35264070 35690778 36109342 36514558
## 10             Armenia  3223173  3173425  3137652  3112958  3093820
## # ... with 209 more rows, and 14 more variables: `2000` <int>,
## #   `2001` <int>, `2002` <int>, `2003` <int>, `2004` <int>, `2005` <int>,
## #   `2006` <int>, `2007` <int>, `2008` <int>, `2009` <int>, `2010` <int>,
## #   `2011` <int>, `2012` <int>, `2013` <int>
```
…
```r
gapminder %>% filter(lifeExp>=49 & lifeExp<60)
```

--- .class #id


## Further Filtering


```
## # A tibble: 373 x 6
##       country continent  year lifeExp      pop  gdpPercap
##        <fctr>    <fctr> <int>   <dbl>    <int>      <dbl>
##  1    Albania    Europe  1952  55.230  1282697  1601.0561
##  2    Albania    Europe  1957  59.280  1476505  1942.2842
##  3    Algeria    Africa  1967  51.407 12760499  3246.9918
##  4    Algeria    Africa  1972  54.518 14760787  4182.6638
##  5    Algeria    Africa  1977  58.014 17152804  4910.4168
##  6    Bahrain      Asia  1952  50.939   120447  9867.0848
##  7    Bahrain      Asia  1957  53.832   138655 11635.7995
##  8    Bahrain      Asia  1962  56.923   171863 12753.2751
##  9    Bahrain      Asia  1967  59.923   202182 14804.6727
## 10 Bangladesh      Asia  1982  50.009 93074406   676.9819
## # ... with 363 more rows
```
…
- Choose only rows associated with
  - Uganda
  - Rwanda

--- .class #id


## On Your Own: RStudio Practice


Your end result should be:


```
## # A tibble: 24 x 6
##    country continent  year lifeExp     pop gdpPercap
##     <fctr>    <fctr> <int>   <dbl>   <int>     <dbl>
##  1  Rwanda    Africa  1952  40.000 2534927  493.3239
##  2  Rwanda    Africa  1957  41.500 2822082  540.2894
##  3  Rwanda    Africa  1962  43.000 3051242  597.4731
##  4  Rwanda    Africa  1967  44.100 3451079  510.9637
##  5  Rwanda    Africa  1972  44.600 3992121  590.5807
##  6  Rwanda    Africa  1977  45.000 4657072  670.0806
##  7  Rwanda    Africa  1982  46.218 5507565  881.5706
##  8  Rwanda    Africa  1987  44.020 6349365  847.9912
##  9  Rwanda    Africa  1992  23.599 7290203  737.0686
## 10  Rwanda    Africa  1997  36.087 7212583  589.9445
## # ... with 14 more rows
```
…
```r
gapminder %>%
  select(country, lifeExp, year)
```


--- .class #id

## Selecting Example Continued


```
# A tibble: 1,704 x 3
       country lifeExp  year
        <fctr>   <dbl> <int>
 1 Afghanistan  28.801  1952
 2 Afghanistan  30.332  1957
 3 Afghanistan  31.997  1962
 4 Afghanistan  34.020  1967
 5 Afghanistan  36.088  1972
 6 Afghanistan  38.438  1977
 7 Afghanistan  39.854  1982
 8 Afghanistan  40.822  1987
 9 Afghanistan  41.674  1992
10 Afghanistan  41.763  1997
# ... with 1,694 more rows
```
…
