…
We could then do the following

```{r,eval= FALSE}
gapminder %>%
  select(country, lifeExp, year)
```


--- .class #id

## Selecting Example Continued


```
# A tibble: 1,704 x 3
       country lifeExp  year
        <fctr>   <dbl> <int>
 1 Afghanistan  28.801  1952
 2 Afghanistan  30.332  1957
 3 Afghanistan  31.997  1962
 4 Afghanistan  34.020  1967
 5 Afghanistan  36.088  1972
 6 Afghanistan  38.438  1977
 7 Afghanistan  39.854  1982
 8 Afghanistan  40.822  1987
 9 Afghanistan  41.674  1992
10 Afghanistan  41.763  1997
# ... with 1,694 more rows
```
…
