Intro to R Programming for Biostatistics
…
We have variables from the 8th visit following baseline.

Baseline corresponds to study enrollment, which is visit 1.

Visits occur every 6 months.

    HERS Study

library(haven)
data <- read_dta("hers.dta")
data$race <- as.factor(data$race)

    HERS Study

## # A tibble: 371 x 19
##         id  basecd4 basevl   cd4cnt symptom    vl haart haart_1  cd4ct_1
##      <chr>    <dbl>  <dbl>    <dbl>   <dbl> <dbl> <dbl>   <dbl>    <dbl>
##  1 0200775 485.1000    130 243.8100       2   580     0       0 312.4800
##  2 0401574 434.8750     50 449.3120       0    50     0       0 398.7530
##  3 0202540 285.4800  95050 308.0000       2    50     0       1 243.6000
##  4 0202335 624.2200   3390 520.2000       2   170     1       1 392.7000
##  5 0202642 211.4200  50390 225.0000       0    50     0       0 131.6000
##  6 0402166 304.0450   1720 352.5785       0   730     1       1 475.3782
##  7 0401041 266.7696   2070 304.9728       1  3800     0       1 347.7274
##  8 0201516 524.5200   2040 425.6000       0    50     0       0 389.1600
##  9 0102072 213.1800  10570 332.8000       0    50     0       0 256.0000
## 10 0102505 418.0000    160 378.0000       1    50     0       0 319.7700
## # ... with 361 more rows, and 10 more variables: vl_1 <dbl>, prog_1 <dbl>,
## #   symp_1 <dbl>, awareyr <dbl>, race <dbl>, site <chr>, iduever <dbl>,
## #   idu6enrl <dbl>, blart <dbl>, yrsaware <dbl>
…
