Intro to R Programming for Biostatistics
…
flights %>% 
  group_by(month, day) %>%  
  top_n(3, dep_delay) %>% 
  arrange(desc(dep_delay))

Where

group_by() is a way to group data. This way we perform operations on a group. So top 3 delays are by a group of day and month. 

top_n()takes a tibble and returns a specific number of rows based on a chosen value. 

    More Complex Arrange Continued

## # A tibble: 1,108 x 19
## # Groups:   month, day [365]
##     year month   day dep_time sched_dep_time dep_delay arr_time
##    <int> <int> <int>    <int>          <int>     <dbl>    <int>
##  1  2013     1     9      641            900      1301     1242
##  2  2013     6    15     1432           1935      1137     1607
##  3  2013     1    10     1121           1635      1126     1239
##  4  2013     9    20     1139           1845      1014     1457
##  5  2013     7    22      845           1600      1005     1044
##  6  2013     4    10     1100           1900       960     1342
##  7  2013     3    17     2321            810       911      135
##  8  2013     6    27      959           1900       899     1236
##  9  2013     7    22     2257            759       898      121
## 10  2013    12     5      756           1700       896     1058
## # ... with 1,098 more rows, and 12 more variables: sched_arr_time <int>,
## #   arr_delay <dbl>, carrier <chr>, flight <int>, tailnum <chr>,
## #   origin <chr>, dest <chr>, air_time <dbl>, distance <dbl>, hour <dbl>,
## #   minute <dbl>, time_hour <dttm>
…
flights %>%
    group_by(dest) %>%
    summarise(avg_delay = mean(arr_delay, na.rm=TRUE))

    Summarizing Data Example

Consider the logic here:

Group flights by destination

Find the average delay of the groups and call it avg_delay.

This is much easier to understand than the  Base R code. 

## # A tibble: 105 x 2
##     dest avg_delay
##    <chr>     <dbl>
##  1   ABQ  4.381890
##  2   ACK  4.852273
##  3   ALB 14.397129
##  4   ANC -2.500000
##  5   ATL 11.300113
##  6   AUS  6.019909
##  7   AVL  8.003831
##  8   BDL  7.048544
##  9   BGR  8.027933
## 10   BHM 16.877323
## # ... with 95 more rows
…
The following is a new function:

Helper function n() counts the number of rows in a group

Then for each day:

count total flights

Sort in descending order. 

    On Your Own: RStudio Practice

    Your answer should look like:

## # A tibble: 365 x 3
## # Groups:   month [12]
##    month   day flight_count
##    <int> <int>        <int>
##  1    11    27         1014
##  2     7    11         1006
##  3     7     8         1004
##  4     7    10         1004
##  5    12     2         1004
##  6     7    18         1003
##  7     7    25         1003
##  8     7    12         1002
##  9     7     9         1001
## 10     7    17         1001
## # ... with 355 more rows

We could also have used what is called the  tally() function:

flights %>%
    group_by(month, day) %>%
    tally(sort = TRUE)

## # A tibble: 365 x 3
## # Groups:   month [12]
##    month   day     n
##    <int> <int> <int>
##  1    11    27  1014
##  2     7    11  1006
##  3     7     8  1004
##  4     7    10  1004
##  5    12     2  1004
##  6     7    18  1003
##  7     7    25  1003
##  8     7    12  1002
##  9     7     9  1001
## 10     7    17  1001
## # ... with 355 more rows
…
